Chapter 3 Cleaning the data | Primary Visualizations
…
First, we call the package tidyverse. This package has many helpful functions that we will use.

library(tidyverse)

3.2 Import sightings CSV from Survey123 currently in data folder

I have changed the x and y values so I can make this “data” public. I am not able to share the actual data.

sightings <- read.csv("../data/23-04-15_Sightings.csv")

Check that went well, look at the first few rows and the names of the columns —-

sightings %>% as_tibble()

## # A tibble: 594 × 9
##        X ObjectID What.species.of.…¹ What.…² Pleas…³ How.m…⁴ Compl…⁵     x     y
##    <int>    <int> <chr>              <chr>   <chr>   <chr>   <chr>   <dbl> <dbl>
##  1     1        5 Coyote             Moving… Reside… 1       Other   -97.5  37.7
##  2     2        6 Red Fox            Moving… Reside… 1       Happy   -97.5  37.7
##  3     3       10 Other              Other   Other   1       Indeff… -97.2  37.9
##  4     4       15 Red Fox            Moving… Reside… 1       Happy   -97.5  37.6
##  5     5       17 Coyote             Moving… Reside… 1       Worried -97.1  37.7
##  6     6       18 Coyote             Moving… Street… 3+      Scared… -97.3  37.6
##  7     7       20 Other              Huntin… Reside… 1       Lucky,… -97.3  37.7
##  8     8       21 Red Fox            Moving… Reside… 1       Indeff… -97.3  37.7
##  9     9       22 Red Fox            Mostly… Reside… 3+      Happy   -97.4  37.7
## 10    10       23 Red Fox            Huntin… Reside… 1       Indeff… -97.4  37.7
## # … with 584 more rows, and abbreviated variable names
## #   ¹​What.species.of.animal.did.you.see., ²​What.was.the.animal.doing.,
## #   ³​Please.describe.the.habitat.the.animal.was.observed.in,
## #   ⁴​How.many.animals.of.this.species.did.you.see.in.total.,
## #   ⁵​Complete.this.sentence..Seeing.this.animal.made.me.feel.
…
Check that went ok

sightings %>% as_tibble()

## # A tibble: 594 × 9
##    SurveyNum SurveyID Species Behavior        Habitat Count Feeli…¹ x_long y_lat
##        <int>    <int> <chr>   <chr>           <chr>   <chr> <chr>    <dbl> <dbl>
##  1         1        5 Coyote  Moving_Fast     Reside… 1     Other    -97.5  37.7
##  2         2        6 Red Fox Moving_Slow     Reside… 1     Happy    -97.5  37.7
##  3         3       10 Other   Other           Other   1     Indeff…  -97.2  37.9
##  4         4       15 Red Fox Moving_Slow     Reside… 1     Happy    -97.5  37.6
##  5         5       17 Coyote  Moving_Slow,Mo… Reside… 1     Worried  -97.1  37.7
##  6         6       18 Coyote  Moving_Fast,Vo… Street… 3+    Scared…  -97.3  37.6
##  7         7       20 Other   Hunting_Eating  Reside… 1     Lucky,…  -97.3  37.7
##  8         8       21 Red Fox Moving_Fast     Reside… 1     Indeff…  -97.3  37.7
##  9         9       22 Red Fox Mostly_Station… Reside… 3+    Happy    -97.4  37.7
## 10        10       23 Red Fox Hunting_Eating  Reside… 1     Indeff…  -97.4  37.7
## # … with 584 more rows, and abbreviated variable name ¹​Feelings
…
